<?xml version="1.0" encoding="utf-8"?>
<!-- Generator: Adobe Illustrator 21.0.0, SVG Export Plug-In . SVG Version: 6.00 Build 0)  -->
<svg version="1.1" id="Capa_1" xmlns="http://www.w3.org/2000/svg" xmlns:xlink="http://www.w3.org/1999/xlink" x="0px" y="0px"
	 viewBox="0 0 512 512" style="enable-background:new 0 0 512 512;" xml:space="preserve">
<style type="text/css">
	.st0{fill:#D8262F;}
</style>
<g>
	<g>
		<g>
			<path class="st0" d="M245.4,161.6l-47.7-27.5c-2.1-1.2-4.7-1.2-6.7,0s-3.4,3.4-3.4,5.8v27.3c0,2.4,1.3,4.6,3.4,5.8l47.7,27.5
				c2.1,1.2,4.7,1.2,6.7,0s3.4-3.4,3.4-5.8v-27.3C248.7,165,247.4,162.8,245.4,161.6z M235.3,183.1l-34.2-19.7v-11.8l34.2,19.7
				L235.3,183.1L235.3,183.1z"/>
			<path class="st0" d="M245.4,216.2l-47.7-27.5c-2.1-1.2-4.7-1.2-6.7,0s-3.4,3.4-3.4,5.8v27.3c0,2.4,1.3,4.6,3.4,5.8l47.7,27.5
				c2.1,1.2,4.7,1.2,6.7,0s3.4-3.4,3.4-5.8v-27.3C248.7,219.7,247.4,217.4,245.4,216.2z M235.3,237.7L201.1,218v-11.8l34.2,19.7
				L235.3,237.7L235.3,237.7z"/>
			<path class="st0" d="M245.4,270.9l-47.7-27.5c-2.1-1.2-4.7-1.2-6.7,0s-3.4,3.4-3.4,5.8v27.3c0,2.4,1.3,4.6,3.4,5.8l47.7,27.5
				c2.1,1.2,4.7,1.2,6.7,0c2.1-1.2,3.4-3.4,3.4-5.8v-27.3C248.7,274.3,247.4,272.1,245.4,270.9z M235.3,292.4l-34.2-19.7v-11.8
				l34.2,19.7L235.3,292.4L235.3,292.4z"/>
			<path class="st0" d="M245.4,325.6L197.7,298c-2.1-1.2-4.7-1.2-6.7,0c-2.1,1.2-3.4,3.4-3.4,5.8v27.3c0,2.4,1.3,4.6,3.4,5.8
				l47.7,27.5c2.1,1.2,4.7,1.2,6.7,0s3.4-3.4,3.4-5.8v-27.3C248.7,329,247.4,326.8,245.4,325.6z M235.3,347.1l-34.2-19.7v-11.8
				l34.2,19.7L235.3,347.1L235.3,347.1z"/>
			<path class="st0" d="M245.4,380.2l-47.7-27.5c-2.1-1.2-4.7-1.2-6.7,0c-2.1,1.2-3.4,3.4-3.4,5.8v27.3c0,2.4,1.3,4.6,3.4,5.8
				l47.7,27.5c2.1,1.2,4.7,1.2,6.7,0c2.1-1.2,3.4-3.4,3.4-5.8v-27.3C248.7,383.7,247.4,381.4,245.4,380.2z M235.3,401.7L201.1,382
				v-11.8l34.2,19.7L235.3,401.7L235.3,401.7z"/>
			<path class="st0" d="M320,226.9c2.1,1.2,4.7,1.2,6.7,0l32.3-18.6c2.1-1.2,3.4-3.4,3.4-5.8v-27.3c0-2.4-1.3-4.6-3.4-5.8
				c-2.1-1.2-4.7-1.2-6.7,0L320,188c-2.1,1.2-3.4,3.4-3.4,5.8v27.3C316.6,223.5,317.9,225.7,320,226.9z M330.1,197.7l18.8-10.9v11.8
				l-18.8,10.9V197.7z"/>
			<path class="st0" d="M320,281.6c2.1,1.2,4.7,1.2,6.7,0L359,263c2.1-1.2,3.4-3.4,3.4-5.8v-27.4c0-2.4-1.3-4.6-3.4-5.8
				s-4.7-1.2-6.7,0L320,242.6c-2.1,1.2-3.4,3.4-3.4,5.8v27.3C316.6,278.2,317.9,280.4,320,281.6z M330.1,252.4l18.8-10.9v11.8
				l-18.8,10.9V252.4z"/>
			<path class="st0" d="M320,336.3c2.1,1.2,4.7,1.2,6.7,0l32.3-18.7c2.1-1.2,3.4-3.4,3.4-5.8v-27.3c0-2.4-1.3-4.6-3.4-5.8
				s-4.7-1.2-6.7,0L320,297.3c-2.1,1.2-3.4,3.4-3.4,5.8v27.4C316.6,332.9,317.9,335.1,320,336.3z M330.1,307l18.8-10.9v11.8
				l-18.8,10.9V307z"/>
			<path class="st0" d="M320,390.9c2.1,1.2,4.7,1.2,6.7,0l32.3-18.6c2.1-1.2,3.4-3.4,3.4-5.8v-27.3c0-2.4-1.3-4.6-3.4-5.8
				c-2.1-1.2-4.7-1.2-6.7,0L320,351.9c-2.1,1.2-3.4,3.4-3.4,5.8v27.3C316.6,387.5,317.9,389.7,320,390.9z M330.1,361.7l18.8-10.9
				v11.7l-18.8,10.9V361.7z"/>
			<path class="st0" d="M320,445.6c2.1,1.2,4.7,1.2,6.7,0l32.3-18.6c2.1-1.2,3.4-3.4,3.4-5.8v-27.3c0-2.4-1.3-4.6-3.4-5.8
				c-2.1-1.2-4.7-1.2-6.7,0L320,406.6c-2.1,1.2-3.4,3.4-3.4,5.8v27.3C316.6,442.2,317.9,444.4,320,445.6z M330.1,416.3l18.8-10.9
				v11.8l-18.8,10.9V416.3z"/>
			<path class="st0" d="M379.6,137.5c0-0.3-0.1-0.5-0.1-0.8c-0.1-0.6-0.3-1.3-0.6-1.8c-0.1-0.1,0-0.2-0.1-0.3
				c-0.1-0.1-0.2-0.2-0.3-0.3c-0.3-0.5-0.7-0.9-1.1-1.3c-0.2-0.2-0.5-0.4-0.7-0.6c-0.1-0.1-0.2-0.1-0.3-0.2l-26.4-15.5V86.3
				c0-0.2-0.1-0.4-0.1-0.7c0-0.1,0-0.2,0-0.3c-0.2-1.7-1.1-3.2-2.5-4.2c-0.1-0.1-0.2-0.1-0.3-0.2c-0.2-0.1-0.3-0.3-0.5-0.4
				l-85.6-49.4V6.7c0-3.7-3-6.7-6.7-6.7s-6.7,3-6.7,6.7v16.6l-7-4c-0.2-0.1-0.4-0.1-0.6-0.2c-0.5-0.3-1.1-0.4-1.6-0.5
				c-0.8-0.1-1.7-0.1-2.5,0c-0.4,0.1-0.8,0.2-1.1,0.4v-5.6c0-1.8-0.7-3.5-2-4.8s-3-2-4.8-2c-1.8,0-3.5,0.7-4.8,2c-1.3,1.3-2,3-2,4.8
				v13.2l-55.4,32c-0.1,0-0.2,0.1-0.2,0.1c-0.1,0-0.1,0.1-0.2,0.1l-29.6,17.1l0,0c-0.7,0.4-1.3,0.9-1.8,1.6
				c-0.1,0.2-0.2,0.3-0.3,0.5c-0.8,1.1-1.2,2.4-1.2,3.8v328c0,2.4,1.3,4.6,3.4,5.8l165.6,95.5c1,0.6,2.2,0.9,3.4,0.9
				c1.2,0,2.3-0.3,3.4-0.9l68.2-39.4c0.3-0.2,0.5-0.4,0.7-0.6c0.7-0.5,1.3-1.2,1.7-2c0.2-0.3,0.3-0.6,0.5-1c0.2-0.5,0.3-1,0.3-1.5
				c0.1-0.2,0.1-0.5,0.1-0.7V137.9C379.6,137.8,379.6,137.6,379.6,137.5z M221.1,42.1v23.7c0,3.7,3,6.7,6.7,6.7s6.7-3,6.7-6.7V34.3
				l2.4-1.4l10.4,6v46.6c0,3.7,3,6.7,6.7,6.7s6.7-3,6.7-6.7V46.6l68.8,39.7l-54.8,31.6l-92.6-53.5L221.1,42.1z M336.4,98v18.6
				l-54.8,31.6v-18.6L336.4,98z M175.6,76.1l92.6,53.5v18.6l-92.6-53.5L175.6,76.1L175.6,76.1z M162.1,76.2v11l-9.5-5.5L162.1,76.2z
				 M163.8,415.1l-18-10.4V393l18,10.4V415.1z M235.3,456.4l-34.2-19.7v-11.8l34.2,19.7L235.3,456.4L235.3,456.4z M298,492.1
				l-18.8-10.9v-11.8l18.8,10.9V492.1z M298,437.4l-18.8-10.9v-11.8l18.8,10.9V437.4z M298,382.7l-18.8-10.9v-11.8L298,371V382.7z
				 M298,328.1l-18.8-10.9v-11.8l18.8,10.9V328.1z M298,273.4l-18.8-10.9v-11.8l18.8,10.9V273.4z M298,218.8l-18.8-10.9v-11.8
				L298,207V218.8z M275.8,178.6c-2.1-1.2-4.7-1.2-6.7,0s-3.4,3.4-3.4,5.8v27.3c0,2.4,1.3,4.6,3.4,5.8l28.9,16.7v11.8l-22.2-12.8
				c-2.1-1.2-4.7-1.2-6.7,0c-2.1,1.2-3.4,3.4-3.4,5.8v27.4c0,2.4,1.3,4.6,3.4,5.8L298,289v11.7l-22.2-12.8c-2.1-1.2-4.7-1.2-6.7,0
				s-3.4,3.4-3.4,5.8v27.3c0,2.4,1.3,4.6,3.4,5.8l28.9,16.8v11.8l-22.2-12.8c-2.1-1.2-4.7-1.2-6.7,0s-3.4,3.4-3.4,5.8v27.3
				c0,2.4,1.3,4.6,3.4,5.8l28.9,16.7v11.8l-22.2-12.8c-2.1-1.2-4.7-1.2-6.7,0c-2.1,1.2-3.4,3.4-3.4,5.8v27.3c0,2.4,1.3,4.6,3.4,5.8
				L298,453v11.8l-22.2-12.8c-2.1-1.2-4.7-1.2-6.7,0c-2.1,1.2-3.4,3.4-3.4,5.8V475l-16.9-9.8v-24.5c0-2.4-1.3-4.6-3.4-5.8
				l-47.7-27.5c-2.1-1.2-4.7-1.2-6.7,0s-3.4,3.4-3.4,5.8v16.7l-10.3-6v-24.5c0-2.4-1.3-4.6-3.4-5.8l-28.1-16.2v-11.8l21.3,12.3
				c2.1,1.2,4.7,1.2,6.7,0c2.1-1.2,3.4-3.4,3.4-5.8v-27.4c0-2.4-1.3-4.6-3.4-5.8l-28.1-16.2V311l21.3,12.3c2.1,1.2,4.7,1.2,6.7,0
				c2.1-1.2,3.4-3.4,3.4-5.8v-27.3c0-2.4-1.3-4.6-3.4-5.8l-28.1-16.2v-11.8l21.3,12.3c2.1,1.2,4.7,1.2,6.7,0
				c2.1-1.2,3.4-3.4,3.4-5.8v-27.3c0-2.4-1.3-4.6-3.4-5.8l-28.1-16.2v-11.8l21.3,12.3c2.1,1.2,4.7,1.2,6.7,0
				c2.1-1.2,3.4-3.4,3.4-5.8v-27.3c0-2.4-1.3-4.6-3.4-5.8l-28.1-16.2V147l21.3,12.3c2.1,1.2,4.7,1.2,6.7,0s3.4-3.4,3.4-5.8v-27.4
				c0-2.4-1.3-4.6-3.4-5.8l-28.1-16.2V93.4L298,181.2v10.2L275.8,178.6z M145.8,350.1v-11.8l18,10.4v11.8L145.8,350.1z M145.8,295.5
				v-11.8l18,10.4v11.8L145.8,295.5z M145.8,240.8V229l18,10.4v11.8L145.8,240.8z M145.8,186.1v-11.8l18,10.4v11.8L145.8,186.1z
				 M145.8,131.4v-11.8l18,10.4v11.8L145.8,131.4z M304.7,169.5l-16.5-9.5l54.9-31.7l16.4,9.6L304.7,169.5z M348.9,471.9l-18.8,10.9
				V471l18.8-10.9V471.9z M366.2,462l-3.7,2.2v-15.8c0-2.4-1.3-4.6-3.4-5.8s-4.7-1.2-6.7,0L320,461.3c-2.1,1.2-3.4,3.4-3.4,5.8v23.5
				l-5.2,3V181.2l54.7-31.6V462z"/>
			<path class="st0" d="M280.4,105.4c1.8,0,3.5-0.7,4.8-2s2-3,2-4.8V78.9c0-3.7-3-6.7-6.7-6.7s-6.7,3-6.7,6.7v19.7
				c0,1.8,0.7,3.5,2,4.8C276.9,104.7,278.6,105.4,280.4,105.4z"/>
		</g>
	</g>
</g>
</svg>
